westphalia = 
{
	region = westphalian_circle_region
	
	name = {
		name = "KINGDOM_OF_WESTPHALIA"
		trigger = {
		from = {
			government = monarchy
			}
		}
	}
	
	name = {
		name = "REPUBLIC_OF_WESTPHALIA"
		trigger = {
			from = {
				government = republic
			}
		}
	}
}

two_sicilies = 
{
	region = sicily_region
	
	name = {
		name = "KINGDOM_OF_NAPLES"
		trigger = {
		from = {
			government = monarchy
			}
		}
	}
	
	name = {
		name = "REPUBLICS_OF_NAPLES"
		trigger = {
		from = {
			government = republic
			}
		}
	}
	
}

italy = 
{
	region = italy_region
	
	name = {
		name = "KINGDOM_OF_ITALY"
		trigger = {
			from = {
				government = monarchy
			}
		}
	}
	
	name = {
		name = "SUBALPINE_REPUBLIC"
		trigger = {
			from = {
				government = republic
			}
		}
	}
}
