name="M&T Catholic Majors DLC Support"
path="mod/MEIOUandTaxes_catmaj_unit_DLC_support"
dependencies={
	"MEIOU and Taxes 1.27"
}
tags={
	"MEIOU and Taxes"
}
picture="MEIOUandTaxesTYW.jpg"
supported_version="1.19.*.*"
