name="M&T Thirty Years' War (Evangelical Union and Catholic League) Unit DLC Support"
path="mod/MEIOUandTaxes_caev_unit_DLC_support"
dependencies={
	"MEIOU and Taxes 1.27"
}
tags={
	"MEIOU and Taxes"
}
picture="MEIOUandTaxesTYW.jpg"
supported_version="1.19.*.*"
