internal_conflicts = {
	potential = {
		num_of_cities = 10
		uses_doom = no
		NOT = {
			has_country_flag = had_internal_conflicts
		}
		is_year = 1500
	}


	can_start = {
		has_any_disaster = no
		unrest = 1
	}
	
	can_stop = {
		OR = {
			has_any_disaster = yes
			NOT = { unrest = 0 }
		}
	}
	
	
	progress = {
		modifier = {
			factor = 1
			NOT = { religious_unity = 1 }
		}		
		modifier = {
			factor = 1
			revolt_percentage = 0.1
		}		
		modifier = {
			factor = 1
			NOT = { stability = 0 }
		}		
		modifier = {
			factor = 0.5
			NOT = { land_maintenance = 1.0 }
		}
	}




	
	can_end = {
		NOT = { num_of_revolts = 1 }
		NOT = { unrest = 0 }
		stability = 0
	}
	

	

	modifier = {
		stability_cost_modifier = 0.5
		global_trade_goods_size_modifier = -0.33
		development_cost = 1
	}	
	
	
	on_start = internal_conflicts.1
	on_end = internal_conflicts.8
	
	on_monthly = {
		events = {
		}
		random_events = { 
			1000 = 0
			100 = internal_conflicts.2
			100 = internal_conflicts.3
			100 = internal_conflicts.4
			100 = internal_conflicts.5
			100 = internal_conflicts.6
			100 = internal_conflicts.7
			10 = centralisation.99
		}
	}
}

