religious_turmoil = {
	potential = {
		always = no
	}

	
	
	can_start = {
		always = no
	}
	
	
	can_stop = {
		OR = {
			has_any_disaster = yes
			religious_unity = 0.75
			full_idea_group = humanist_ideas
		}
	}
	
	modifier = {
	}
	
	progress = {
		modifier = {
			factor = 1
			NOT = { religious_unity = 0.75 }
			religious_unity = 0.5
		} 		
		modifier = {
			factor = 2
			NOT = { religious_unity = 0.5 }
		} 
		modifier = {
			factor = 1
			religious_ideas_trigger = yes
		}
		modifier = {
			factor = 1
			NOT = { stability = 0 }
		}
		modifier = {
			factor = 2
			has_hostile_reformation_center = yes
		}
		modifier = {
			factor = -1
			has_friendly_reformation_center = yes
		}
		
		
		

	}
	
	
	can_end = {
		OR = {
			AND = {
				NOT = { num_of_rebel_controlled_provinces = 1 }
				OR = {
					is_force_converted = yes
					religious_unity = 0.9
					NOT = {
						any_owned_province = {
							has_owner_religion = no
							OR = {
								religion = catholic
								religion = protestant
								religion = reformed
							}
						}		
					}
					full_idea_group = humanist_ideas
				}
			}
			custom_trigger_tooltip = {
				tooltip = religious_turmoil_timelimit_tt
				had_country_flag = { flag = active_religious_turmoil days = 9125 }
			}
		}
	}
	

	
	on_start = religious_turmoil.1
	on_end = religious_turmoil.2
	
	on_monthly = {
		events = {
		}
		
		random_events = { 
			1200 = 0
			10 = religious_turmoil.3
			10 = religious_turmoil.4
			10 = religious_turmoil.5
			10 = religious_turmoil.6
			10 = centralisation.99
		}
	}
}

