########################################
# Events for Cologne
#
# written by Johan Andersson
########################################

# The Bavarian Archbishops
country_event = {
	id = flavor_kol.1
	title = flavor_kol.1.t
	desc = flavor_kol.1.d
	picture = POPE_PREACHING_eventPicture
	
	fire_only_once = yes
	is_triggered_only = yes

	trigger = {
		tag = KOL
		OR = {
			government = theocratic_government
			government = monastic_order_government
		}
		is_elector = yes
		is_subject = no
		religion = catholic
		is_year = 1550
		NOT = { is_rival = BAV }
		NOT = { is_year = 1650 }
		BAV = {
			exists = yes
			religion = catholic	
			NOT = { is_rival = KOL }					
		}
	}
	
	option = {	
		name = flavor_kol.1.a
		BAV = {
			add_opinion = {
				who = root
				modifier = kol_bavarian_archbishop
			}				
			hidden_effect = {
				country_event = {
					id = flavor_bav.2
				}
			}
		}
		hidden_effect = { set_dynasty = BAV }
		add_papal_influence = 5
	}
	option = {
		name = flavor_kol.1.b
		define_ruler = { }
		add_papal_influence = -5
		
		BAV = {
			add_opinion = {
				who = root
				modifier = kol_bavarian_archbishop_replaced
			}				
		}	
		PAP = {
			add_opinion = {
				who = root
				modifier = kol_bavarian_archbishop_replaced
			}				
		}			
	}
}
