########################################
# Events for Naples
#
# written by Johan Andersson
########################################


# The Baronial Revolt
country_event = {
	id = flavor_nap.1
	title = flavor_nap.1.t
	desc = flavor_nap.1.d
	picture = ANGRY_MOB_eventPicture

	fire_only_once = yes

	trigger = {
		tag = KNP
		is_year = 1459
		NOT = { is_year = 1495 }
		NOT = { legitimacy = 90 }
		is_subject = no
		is_female = no
		is_lesser_in_union = no
		government = monarchy
		has_regency = no
		NOT = { dynasty = "d'Anjou" }
		exists = FRA
		FRA = {
			has_regency = no
			is_lesser_in_union = no
		}
	}
	
	mean_time_to_happen = {
		months = 36
	}
	
	option = {
		ai_chance = { factor = 90 }
		name = flavor_nap.1.a
		subtract_stability_1 = yes
		random_owned_province = {
			limit = {
				NOT = { has_province_modifier = peasants_organizing }
			}
			add_province_modifier = {
				name = "peasants_organizing"
				duration = 1825
			}
			add_unrest = 5
		}
		random_owned_province = {
			limit = {
				NOT = { has_province_modifier = peasants_organizing }
			}
			add_province_modifier = {
				name = "peasants_organizing"
				duration = 1825
			}
			add_unrest = 5
		}
		FRA = {
			add_opinion = {
				who = root
				modifier = nap_french_spurned
			}
		}
	}
	option = {
		name = flavor_nap.1.b
		FRA = {
			country_event = {
				id = flavor_nap.2
				tooltip = flavor_nap.1.2
			}
		}
		
	}
	
}

# France gets happy
country_event = {
	id = flavor_nap.2
	title = flavor_nap.2.t
	desc = flavor_nap.2.d
	picture = COURT_eventPicture
	
	fire_only_once = yes
	is_triggered_only = yes

	option = {
		name = flavor_nap.2.a
		create_union = KNP
		add_prestige = 10
	}
}

# Renaissance Centre
country_event = {
	id = flavor_nap.3
	title = flavor_nap.3.t
	desc = flavor_nap.3.d
	picture = IMPORTANT_STATUE_eventPicture
	
	fire_only_once = yes

	trigger = {
		OR = {
			tag = KNP
			tag = NAP
		}
		is_year = 1460
		NOT = { is_year = 1530 }
		stability = 3
		is_at_war = no
	}
	
	mean_time_to_happen = {
		months = 4
	}	
	
	option = {
		name = flavor_nap.3.a
		add_prestige = 10
		add_country_modifier = {
			name = "nap_renaissance_culture"
			duration = 7300
		}
	}
	option = {
		name = flavor_nap.3.b
		add_legitimacy = 0.1
		add_country_modifier = {
			name = "nap_renaissance_glory"
			duration = 7300
		}
	}
}

#Baroque Era
country_event = {
	id = flavor_nap.4
	title = flavor_nap.4.t
	desc = flavor_nap.4.d
	picture = IMPORTANT_STATUE_eventPicture
	
	fire_only_once = yes
	
	trigger = {
		OR = {
			tag = KNP
			tag = NAP
		}			
		is_year = 1600
		NOT = { is_year = 1650 }
		stability = 3
		is_at_war = no
	}
	
	mean_time_to_happen = {
		months = 4
	}	
	
	option = {
		name = flavor_nap.4.a
		2531 = {
			add_base_tax = 2
			add_base_production = 2
			add_base_manpower = 1
		}
	}
}

# Masaniello's Revolt
country_event = {
	id = flavor_nap.5
	title = flavor_nap.5.t
	desc = flavor_nap.5.d
	picture = ANGRY_MOB_eventPicture
	
	fire_only_once = yes
	
	is_triggered_only = yes
	
	immediate = {
		hidden_effect = {
			random_owned_province = {
				limit = {
					NOT = { province_id = 2531 }
				}
				set_province_flag = particularist_rebels
			}
			random_owned_province = {
				limit = {
					NOT = { province_id = 2531 }
					NOT = { has_province_flag = particularist_rebels }
				}
				set_province_flag = particularist_rebels
			}
		}
	}

	option = {
		name = flavor_nap.5.a
		subtract_stability_3 = yes
		2531 = {
			spawn_rebels = {
				type = particularist_rebels
				size = 2
				leader = "Masaniello"
			}
		}
		every_owned_province = {
			limit = {
				has_province_flag = particularist_rebels
			}
			particularist_rebels = 2
		}
	}
	option = {
		name = flavor_nap.5.b
		ai_chance = { factor = 90 }
		add_legitimacy = -25
		add_republican_tradition = -33
		2531 = { particularist_rebels = 1 }

	}
}

# Plague in Naples
#country_event = {
#	id = flavor_nap.6
#	title = flavor_nap.6.t
#	desc = flavor_nap.6.d
#	picture = PLAGUE_eventPicture
#
#	fire_only_once = yes
#
#	trigger = {
#		OR = {
#			tag = KNP
#			tag = NAP
#		}
#		is_year = 1656
#		NOT = { is_year = 1660 }
#	}
#	
#	mean_time_to_happen = {
#		months = 12
#	}	
#	option = {	
#		name = flavor_nap.6.a
#		2531 = {
#			add_province_modifier = {
#				name = "nap_recover_from_plague"
#				duration = 3650
#			}
#		}
#	}
#}
