#Navarran events

# The Wedding of Navarra
country_event = {
	id = hee_NAV.1
	title = hee_NAV.1.t
	desc = hee_NAV.1.d
	picture = GOOD_WITH_MONARCH_eventPicture
	
	fire_only_once = yes
	
	trigger = {
		tag = NAV
		is_subject = no
		ARA = {
			is_subject = no
		}
		has_opinion = {
			who = ARA
			value = -10
		}
		OR = {
			AND = {
				is_female = yes
				ARA = {
					is_female = no
				}
			}
			AND = {
				OR = {
					has_female_heir = yes
					has_heir = no
				}
				ARA = {
					has_heir = yes
					has_female_heir = no
				}
			}
			AND = {
				is_female = yes
				ARA = {
					has_female_heir = no
					heir_age = 15
				}
			}
		}
		NOT = {
			is_year = 1510
		}
	}
	
	mean_time_to_happen = {
		months = 90
	}
	
	option = {
		name = hee_NAV.1.a
		ai_chance = {
			factor = 90
		}
		ARA = {
			country_event = {
				id = hee_NAV.2
			}
		}
	}
	option = {
		name = hee_NAV.1.b
		ai_chance = {
			factor = 10
		}
		add_legitimacy = -5
		add_prestige = 5
	}
}

# Navarran wedding
country_event = {
	id = hee_NAV.2
	title = hee_NAV.2.t
	desc = hee_NAV.2.d
	picture = GOOD_WITH_MONARCH_eventPicture
	
	is_triggered_only = yes
	
	option = {
		name = hee_NAV.2.a
		ai_chance = {
			factor = 100
			modifier = {
				factor = 0
				is_subject = yes
			}
		}
		create_union = NAV
	}
	option = {
		name = hee_NAV.2.b
		ai_chance = {
			factor = 0
			modifier = {
				factor = 100
				is_subject = yes
			}
		}
		add_legitimacy = -5
		NAV = {
			country_event = {
				id = hee_NAV.3
			}
		}
	}
}

# Aragon rejects
country_event = {
	id = hee_NAV.3
	title = hee_NAV.3.t
	desc = hee_NAV.3.d
	picture = COURT_eventPicture
	
	is_triggered_only = yes
	
	option = {
		name = hee_NAV.3.a
		add_opinion = {
			who = ARA
			modifier = hee_rejected_marriage
		}
	}
}

# Navarran Civil War Not Aragon
country_event = {
	id = hee_NAV.4
	title = hee_NAV.4.t
	desc = hee_NAV.4.d
	picture = CIVIL_WAR_eventPicture
	
	fire_only_once = yes
	
	trigger = {
		tag = NAV
		is_lesser_in_union = yes
		NOT = {
			junior_union_with = ARA
		}
		NOT = {
			is_year = 1500
		}
		NOT = {
			has_country_modifier = hee_navarran_civil_war
		}
	}
	
	mean_time_to_happen = {
		months = 48
		modifier = {
			factor = 0.5
			NOT = {
				legitimacy = 75
			}
		}
		modifier = {
			factor = 0.8
			NOT = {
				stability = 1
			}
		}
	}
	
	immediate = {
		hidden_effect = {
			add_country_modifier = {
				name = hee_navarran_civil_war
				duration = -1
				hidden = yes
			}
		}
	}
	
	option = {
		name = hee_NAV.4.a
		random_owned_province = {
			limit = {
				NOT = { has_province_modifier = pretender_organizing }
			}
			add_province_modifier = {
				name = "pretender_organizing"
				duration = 1825
			}
			add_unrest = 5
		}
		random_owned_province = {
			limit = {
				NOT = { has_province_modifier = pretender_organizing }
			}
			add_province_modifier = {
				name = "pretender_organizing"
				duration = 1825
			}
			add_unrest = 5
		}
		random_owned_province = {
			limit = {
				NOT = { has_province_modifier = pretender_organizing }
			}
			add_province_modifier = {
				name = "pretender_organizing"
				duration = 1825
			}
			add_unrest = 5
		}
		overlord = {
			country_event = {
				id = hee_NAV.5
			}
		}
	}
}

# Notification to Overlord
country_event = {
	id = hee_NAV.5
	title = hee_NAV.5.t
	desc = hee_NAV.5.d
	picture = BATTLE_eventPicture
	
	is_triggered_only = yes
	
	option = {
		name = hee_NAV.5.a
	}
}

# Navarran Civil War with Aragon
country_event = {
	id = hee_NAV.6
	title = hee_NAV.6.t
	desc = hee_NAV.6.d
	picture = CIVIL_WAR_eventPicture
	
	fire_only_once = yes
	
	trigger = {
		tag = NAV
		junior_union_with = ARA
		ARA = {
			OR = { has_regency = no has_consort_regency = yes }
		}
		NOT = {
			is_year = 1500
		}
		NOT = {
			has_country_modifier = hee_navarran_civil_war
		}
	}
	
	mean_time_to_happen = {
		months = 60
		modifier = {
			factor = 0.5
			NOT = {
				legitimacy = 75
			}
		}
		modifier = {
			factor = 0.8
			NOT = {
				stability = 1
			}
		}
	}
	
	immediate = {
		hidden_effect = {
			add_country_modifier = {
				name = hee_navarran_civil_war
				duration = -1
				hidden = yes
			}
		}
	}
	
	option = {
		name = hee_NAV.6.a
		ARA = {
			country_event = {
				id = hee_NAV.7
			}
		}
	}
}

# Aragon Reacts
country_event = {
	id = hee_NAV.7
	title = hee_NAV.7.t
	desc = hee_NAV.7.d
	picture = LIBERUM_VETO_eventPicture
	
	is_triggered_only = yes

	option = {
		name = hee_NAV.7.a
		ai_chance = {
			factor = 85
		}
		NAV = {
			random_owned_province = {
				limit = {
					NOT = { has_province_modifier = pretender_organizing }
				}
				add_province_modifier = {
					name = "pretender_organizing"
					duration = 1825
				}
				add_unrest = 5
			}
			random_owned_province = {
				limit = {
					NOT = { has_province_modifier = pretender_organizing }
				}
				add_province_modifier = {
					name = "pretender_organizing"
					duration = 1825
				}
				add_unrest = 5
			}
		}
	}
	option = {
		name = hee_NAV.7.b
		trigger = {
			has_heir = yes
		}
		ai_chance = {
			factor = 15
		}
		kill_ruler = yes
		if = {
			limit = {
				OR = {
					NAV = {
						NOT = {
							has_opinion = {
								who = ARA
								value = 1
							}
						}
					}
					NOT = {
						prestige = 1
					}
				}
			}
			create_union = NAV
		}
		NAV = {
			country_event = { id = hee_NAV.8 days = 3 }
		}
	}
	option = {
		name = hee_NAV.7.c
		break_union = NAV
		NAV = {
			define_ruler = {
				name = "Carlos"
				dynasty = "de Trastamara"
				ADM = 3
				DIP = 4
				MIL = 5
				age = 16
			}
			country_event = { id = hee_NAV.9 }
		}
	}
}

#The King of Aragon Abdicates!
country_event = {
	id = hee_NAV.8
	title = hee_NAV.8.t
	desc = hee_NAV.8.d
	picture = COURT_eventPicture
	
	is_triggered_only = yes
	
	option = {
		name = hee_NAV.8.a
		add_legitimacy = -15
	}
}

#Navarra passes to Carlos
country_event = {
	id = hee_NAV.9
	title = hee_NAV.9.t
	desc = hee_NAV.9.d
	picture = DIPLOMACY_eventPicture
	
	is_triggered_only = yes
	
	option = {
		name = hee_NAV.9.a
		add_legitimacy = 5
		add_adm_power = 10
		add_dip_power = 10
		add_mil_power = 10
	}
}

#St. Francis of Xavier
country_event = {
	id = hee_NAV.10
	title = hee_NAV.10.t
	desc = hee_NAV.10.d
	picture = RELIGIOUS_CONVERSION_eventPicture
	
	fire_only_once = yes
	
	trigger = {
		OR = {
			tag = NAV
			AND = {
				NOT = {
					exists = NAV
				}
				tag = SPA
			}
		}
		is_year = 1500
		NOT = {
			is_year = 1551
		}
		OR = {
			religion = catholic
			religion = protestant
			religion = reformed
		}
	}
	
	mean_time_to_happen = {
		months = 360
		modifier = {
			factor = 0.9
			OR = {
				has_idea_group = asceticism_ideas
				has_idea_group = ceremony_ideas
				has_idea_group = popular_religion_ideas
				has_idea_group = scholasticism_ideas
				has_idea_group = theology_ideas
			}
		}
	}
	
	option = { #He should serve as a minister
		name = hee_NAV.10.a
		ai_chance = {
			factor = 15
		}
		define_advisor = {
			type = inquisitor
			name = "Francis of Xavier"
			skill = 2
			discount = yes
		}
	}
	
	option = { #God leads his path
		name = hee_NAV.10.b
		ai_chance = {
			factor = 85
		}
		add_dip_power = 150
		hidden_effect = {
			random_province = {
				limit = {
					is_capital = no
					OR = {
						region = japan_region
						superregion = southeast_asia_superregion
						region = deccan_region
					}
				}
				province_event = { id = hee_NAV.12 days = 365 }
			}
			random_province = {
				limit = {
					is_capital = no
					OR = {
						region = japan_region
						superregion = southeast_asia_superregion
						region = deccan_region
					}
				}
				province_event = { id = hee_NAV.12 days = 365 random = 90}
			}
		}
		custom_tooltip = hee_NAV.10.tt
	}
}

#Ciudadela de Pamplona
country_event = { 
	id = hee_NAV.11
	title = hee_NAV.11.t
	desc = hee_NAV.11.d
	picture = FORT_eventPicture
	
	fire_only_once = yes
	
	trigger = {
		OR = {
			tag = NAV
			AND = {
				tag = SPA
				NOT = {
					exists = NAV
				}
			}
			AND = {
				tag = ARA
				NOT = {
					exists = NAV
				}
			}
		}
		owns = 210
		is_year = 1570
		NOT = {
			is_year = 1630
		}
		exists = FRA
		NOT = {
			alliance_with = FRA
		}
		NOT = {
			has_opinion = {
				who = FRA
				value = 50
			}
		}
	}
	
	mean_time_to_happen = {
		months = 420
		modifier = {
			factor = 0.7
			truce_with = FRA
		}
		modifier = {
			factor = 0.8
			is_rival = FRA
		}
		modifier = {
			factor = 0.8
			FRA = {
				is_rival = ROOT
			}
		}
	}
	
	option = { #Build a great fort!
		name = hee_NAV.11.a
		ai_chance = {
			factor = 90
			modifier = {
				factor = 0
				num_of_loans = 5
			}
		}
		add_years_of_income = -0.25
		210 = {
			add_province_modifier = {
				name = hee_ciudadela_pamplona
				duration = -1
			}
		}
		if = {
			limit = {
				NOT = {
					210 = {
						fort_level = 2
					}
				}
			}
			210 = {
				add_building = fort_15th
			}
		}
	}
	
	option = { #Let's develop a different strategy
		name = hee_NAV.11.b
		ai_chance = {
			factor = 10
			modifier = {
				factor = 100
				num_of_loans = 5
			}
		}
		add_mil_power = 20
	}
}

#Converted by Francis Xavier
province_event = {
	id = hee_NAV.12
	title = hee_NAV.12.t
	desc = hee_NAV.12.d
	picture = RELIGIOUS_CONVERSION_eventPicture
	
	is_triggered_only = yes
	
	option = {
		name = hee_NAV.12.a
		change_variable = { which = province_religion value = -14 }
		change_variable = { which = catholic value = 14 }
		change_religion = catholic
	}
}
