# Protestant Events


# Johannes Bugenhagen, second Apostle of the North
country_event = {
	id = hee_protestant.1
	title = hee_protestant.1.t
	desc = hee_protestant.1.d
	picture = ADVISOR_eventPicture

	trigger = {
		OR = {
			capital_scope = { superregion = scandinavian_superregion }
			tag = MKL
			tag = WRL
			tag = MST
			tag = POM
			tag = PWO
			tag = PST
			tag = PKA
			tag = HSA
			tag = HAM
			tag = FRL
			tag = LAU
			tag = LUN
			tag = SHL
			tag = BRE
		}
		NOT = { is_year = 1560 }
		is_religion_enabled = protestant #DG
		NOT = { has_country_modifier = hee_johannes_bugenhagen }
		religion = protestant
		any_province = { religion = catholic }
	}

	mean_time_to_happen = {
		months = 480
		modifier = {
			factor = 0.8
			ADM = 4
		}
		modifier = {
			factor = 0.8
			has_idea_group = humanist_ideas
		}
	}

	immediate = {
		hidden_effect = { 
			add_country_modifier = {
				name = hee_johannes_bugenhagen
				duration = -1
				hidden = yes
			}
		}
	}

	option = {
		name = hee_protestant.1.a
		define_advisor = {
			type = inquisitor
			name = "Johannes Bugenhagen"
			skill = 2
			discount = yes
		}
	}

	option = {
		name = hee_protestant.1.b
		add_stability_1 = yes
	}
}

# A Protestant in [Owner.GetAdjective] Lands
province_event = {
	id = hee_protestant.2
	title = hee_protestant.2.t
	desc = hee_protestant.2.d
	picture = RELIGION_eventPicture

	trigger = {
		religion = catholic
		is_religion_enabled = protestant #Added by David
		NOT = { 
			owner = { religion = catholic }
		}
		NOT = { 
			owner = { religion = reformed }
		}
		NOT = { 
			owner = { religion = protestant }
		}
		NOT = { is_year = 1650 }
	}

	mean_time_to_happen = {
		months = 4000
		modifier = {
			factor = 0.9
			owner = {
				has_idea_group = humanist_ideas
			}
		}
		modifier = {
			factor = 1.1
			owner = {
				has_idea_group = theology_ideas
			}
		}
	}

	option = {
		name = hee_protestant.2.a
		change_religion = protestant
	}
}
