
# Spain
country_event = {
	id = nations_dismantled.2
	title = "nations_dismantled.2.n"
	desc = "nations_dismantled.2.t"
	picture = BURNING_CITY_eventPicture

	trigger = {
		tag = SPA
		exists = CAS
		NOT = {
			num_of_owned_provinces_with = {
				region = castille_region
				OR = {
					owned_by = ROOT
					owner = { vassal_of = ROOT }
					owner = { junior_union_with = ROOT }
				}
				value = 5
			}
		}
	}

	mean_time_to_happen = {
		months = 3
	}
	
	option = {
		name = "OPT.ALAS"
		if = {
			limit = {
				num_of_owned_provinces_with = {
					region = leon_region
					OR = {
						owned_by = ROOT
						owner = { vassal_of = ROOT }
						owner = { junior_union_with = ROOT }
					}
					value = 4
				}
			}
			change_tag = LEO
			add_prestige = -20
		}
		if = {
			limit = {
				num_of_owned_provinces_with = {
					region = aragon_region
					OR = {
						owned_by = ROOT
						owner = { vassal_of = ROOT }
						owner = { junior_union_with = ROOT }
					}
					value = 6
				}
				NOT = {
					num_of_owned_provinces_with = {
						region = leon_region
						OR = {
							owned_by = ROOT
							owner = { vassal_of = ROOT }
							owner = { junior_union_with = ROOT }
						}
						value = 4
					}
				}
			}
			change_tag = ARA
			add_prestige = -20
		}
		if = {
			limit = {
				owns = 333
				owns = 2358
				NOT = {
					num_of_owned_provinces_with = {
						region = aragon_region
						OR = {
							owned_by = ROOT
							owner = { vassal_of = ROOT }
							owner = { junior_union_with = ROOT }
						}
						value = 6
					}
				}
				NOT = {
					num_of_owned_provinces_with = {
						region = leon_region
						OR = {
							owned_by = ROOT
							owner = { vassal_of = ROOT }
							owner = { junior_union_with = ROOT }
						}
						value = 4
					}
				}
			}
			change_tag = BLE
			add_prestige = -20
		}
		if = {
			limit = {
				num_of_owned_provinces_with = {
					area = corsica_sardinia_area
					OR = {
						owned_by = ROOT
						owner = { vassal_of = ROOT }
						owner = { junior_union_with = ROOT }
					}
					value = 3
				}
				OR = {
					NOT = { owns = 333 }
					NOT = { owns = 2358 }
				}
				NOT = {
					num_of_owned_provinces_with = {
						region = aragon_region
						OR = {
							owned_by = ROOT
							owner = { vassal_of = ROOT }
							owner = { junior_union_with = ROOT }
						}
						value = 6
					}
				}
				NOT = {
					num_of_owned_provinces_with = {
						region = leon_region
						OR = {
							owned_by = ROOT
							owner = { vassal_of = ROOT }
							owner = { junior_union_with = ROOT }
						}
						value = 4
					}
				}
			}
			change_tag = SAR
			add_prestige = -20
		}
	}
}

# Polish-Lithuania Commonwealth
country_event = {
	id = nations_dismantled.3
	title = "nations_dismantled.3.n"
	desc = "nations_dismantled.3.t"
	picture = BURNING_CITY_eventPicture


	trigger = {
		tag = PLC
		OR = {
			AND = {
				exists = POL
				POL = {
					OR = {
						AND = {
							is_subject = yes
							NOT = { is_subject_of = PLC }
						}
						is_subject = no
					}
				}
				NOT = { exists = LIT }
			}
			AND = {
				exists = LIT
				LIT = {
					OR = {
						AND = {
							is_subject = yes
							NOT = { is_subject_of = PLC }
						}
						is_subject = no
					}
				}
				NOT = { exists = POL }
			}
			AND = {
				exists = LIT
				exists = POL
				LIT = {
					OR = {
						AND = {
							is_subject = yes
							NOT = { is_subject_of = PLC }
						}
						is_subject = no
					}
				}
				POL = {
					OR = {
						AND = {
							is_subject = yes
							NOT = { is_subject_of = PLC }
						}
						is_subject = no
					}
				}
			}
		}
	}

	mean_time_to_happen = {
		months = 3
	}

	option = {
		name = "OPT.ALAS"
		if = {
			limit = {
				exists = POL
				exists = LIT
				NOT = { exists = MAZ }
				owns = 256
			}
			change_tag = MAZ
			add_prestige = -20
		}
		if = {
			limit = {
				exists = POL
				exists = LIT
				NOT = { exists = KIE }
				owns = 276
			}
			change_tag = KIE
			add_prestige = -20
		}
		if = {
			limit = {
				exists = POL
				NOT = { exists = LIT }
			}
			change_tag = LIT
			add_prestige = -20
		}
		if = {
			limit = {
				exists = LIT
				NOT = { exists = POL }
			}
			change_tag = POL
			add_prestige = -20
		}
	}
}

# Norway
country_event = {
	id = nations_dismantled.4
	title = "nations_dismantled.4.n"
	desc = "nations_dismantled.4.t"
	picture = BURNING_CITY_eventPicture


	trigger = {
		tag = NOR
		NOT = {
			exists = ICE
		}
		NOT = {
			num_of_owned_provinces_with = {
				area = northern_norway_area
				value = 1
			}
		}
		NOT = {
			num_of_owned_provinces_with = {
				area = eastern_norway_area
				value = 1
			}
		}
		NOT = {
			num_of_owned_provinces_with = {
				area = western_norway_area
				value = 1
			}
		}
		OR = {
			owns = 370
			owns = 371
		}
	}

	mean_time_to_happen = {
		months = 3
	}

	option = {
		name = "OPT.ALAS"
		change_tag = ICE
		add_prestige = -20
	}
}

# Denmark-Norway
country_event = {
	id = nations_dismantled.5
	title = "nations_dismantled.5.n"
	desc = "nations_dismantled.5.t"
	picture = BURNING_CITY_eventPicture


	trigger = {
		tag = DAN
		OR = {
			AND = {
				exists = DEN
				DEN = {
					OR = {
						AND = {
							is_subject = yes
							NOT = { is_subject_of = DAN }
						}
						is_subject = no
					}
				}
				NOT = { exists = NOR }
			}
			AND = {
				exists = NOR
				NOR = {
					OR = {
						AND = {
							is_subject = yes
							NOT = { is_subject_of = DAN }
						}
						is_subject = no
					}
				}
				NOT = { exists = DEN }
			}
			AND = {
				exists = NOR
				exists = DEN
				NOR = {
					OR = {
						AND = {
							is_subject = yes
							NOT = { is_subject_of = DAN }
						}
						is_subject = no
					}
				}
				DEN = {
					OR = {
						AND = {
							is_subject = yes
							NOT = { is_subject_of = DAN }
						}
						is_subject = no
					}
				}
				NOT = { exists = ICE }
				OR = {
					owns = 370
					owns = 371
				}
			}
		}
	}

	mean_time_to_happen = {
		months = 3
	}

	option = {
		name = "OPT.ALAS"
		if = {
			limit = {
				exists = DEN
				exists = NOR
				NOT = { exists = ICE }
			}
			change_tag = ICE
			add_prestige = -20
		}
		if = {
			limit = {
				exists = DEN
				NOT = { exists = NOR }
			}
			change_tag = NOR
			add_prestige = -20
		}
		if = {
			limit = {
				exists = NOR
				NOT = { exists = DEN }
			}
			change_tag = DEN
			add_prestige = -20
		}
	}
}

# Scandinavia
country_event = {
	id = nations_dismantled.6
	title = "nations_dismantled.6.n"
	desc = "nations_dismantled.6.t"
	picture = BURNING_CITY_eventPicture


	trigger = {
		tag = KAL
		OR = {
			AND = {
				exists = SWE
				SWE = {
					OR = {
						AND = {
							is_subject = yes
							NOT = { is_subject_of = KAL }
						}
						is_subject = no
					}
				}
				NOT = { exists = DAN }
			}
			AND = {
				exists = DAN
				DAN = {
					OR = {
						AND = {
							is_subject = yes
							NOT = { is_subject_of = KAL }
						}
						is_subject = no
					}
				}
				NOT = { exists = SWE }
			}
			AND = {
				exists = NOR
				exists = DEN
				NOR = {
					OR = {
						AND = {
							is_subject = yes
							NOT = { is_subject_of = KAL }
						}
						is_subject = no
					}
				}
				DEN = {
					OR = {
						AND = {
							is_subject = yes
							NOT = { is_subject_of = KAL }
						}
						is_subject = no
					}
				}
				NOT = { exists = SWE }
			}
			AND = {
				exists = SWE
				exists = NOR
				SWE = {
					OR = {
						AND = {
							is_subject = yes
							NOT = { is_subject_of = KAL }
						}
						is_subject = no
					}
				}
				NOR = {
					OR = {
						AND = {
							is_subject = yes
							NOT = { is_subject_of = KAL }
						}
						is_subject = no
					}
				}
				NOT = { exists = DEN }
			}
			AND = {
				exists = SWE
				exists = DEN
				SWE = {
					OR = {
						AND = {
							is_subject = yes
							NOT = { is_subject_of = KAL }
						}
						is_subject = no
					}
				}
				DEN = {
					OR = {
						AND = {
							is_subject = yes
							NOT = { is_subject_of = KAL }
						}
						is_subject = no
					}
				}
				NOT = { exists = NOR }
			}
			AND = {
				exists = SWE
				exists = DEN
				exists = NOR
				SWE = {
					OR = {
						AND = {
							is_subject = yes
							NOT = { is_subject_of = KAL }
						}
						is_subject = no
					}
				}
				DEN = {
					OR = {
						AND = {
							is_subject = yes
							NOT = { is_subject_of = KAL }
						}
						is_subject = no
					}
				}
				NOR = {
					OR = {
						AND = {
							is_subject = yes
							NOT = { is_subject_of = KAL }
						}
						is_subject = no
					}
				}
				NOT = { exists = ICE }
				OR = {
					owns = 370
					owns = 371
				}
			}
		}
	}

	mean_time_to_happen = {
		months = 3
	}

	option = {
		name = "OPT.ALAS"
		if = {
			limit = {
				exists = SWE
				NOT = { exists = DAN }
			}
			change_tag = DAN
			add_prestige = -20
		}
		if = {
			limit = {
				exists = DAN
				NOT = { exists = SWE }
			}
			change_tag = SWE
			add_prestige = -20
		}
		if = {
			limit = {
				exists = NOR
				exists = DEN
				NOT = { exists = SWE }
			}
			change_tag = SWE
			add_prestige = -20
		}
		if = {
			limit = {
				exists = SWE
				exists = NOR
				NOT = { exists = DEN }
			}
			change_tag = DEN
			add_prestige = -20
		}
		if = {
			limit = {
				exists = SWE
				exists = DEN
				NOT = { exists = NOR }
			}
			change_tag = NOR
			add_prestige = -20
		}
		if = {
			limit = {
				exists = SWE
				exists = DEN
				exists = NOR
				NOT = { exists = ICE }
			}
			change_tag = ICE
			add_prestige = -20
		}
	}
}

# Great Britain
country_event = {
	id = nations_dismantled.7
	title = "nations_dismantled.7.n"
	desc = "nations_dismantled.7.t"
	picture = BURNING_CITY_eventPicture


	trigger = {
		tag = GBR
		OR = {
			AND = {
				exists = SCO
				SCO = {
					OR = {
						AND = {
							is_subject = yes
							NOT = { is_subject_of = GBR }
						}
						is_subject = no
					}
				}
				NOT = { exists = ENG }
			}
			AND = {
				exists = ENG
				ENG = {
					OR = {
						AND = {
							is_subject = yes
							NOT = { is_subject_of = GBR }
						}
						is_subject = no
					}
				}
				NOT = { exists = SCO }
			}
			AND = {
				exists = ENG
				exists = SCO
				ENG = {
					OR = {
						AND = {
							is_subject = yes
							NOT = { is_subject_of = GBR }
						}
						is_subject = no
					}
				}
				SCO = {
					OR = {
						AND = {
							is_subject = yes
							NOT = { is_subject_of = GBR }
						}
						is_subject = no
					}
				}
				NOT = { exists = WLS }
				OR = {
					owns = 241
					owns = 242
					owns = 1412
				}
			}
		}
	}

	mean_time_to_happen = {
		months = 3
	}

	option = {
		name = "OPT.ALAS"
		if = {
			limit = {
				exists = SCO
				exists = ENG
				NOT = { exists = WLS }
			}
			change_tag = WLS
			add_prestige = -20
		}
		if = {
			limit = {
				exists = SCO
				NOT = { exists = ENG }
			}
			change_tag = ENG
			add_prestige = -20
		}
		if = {
			limit = {
				exists = ENG
				NOT = { exists = SCO }
			}
			change_tag = SCO
			add_prestige = -20
		}
	}
}

# Bulgaria
country_event = {
	id = nations_dismantled.8
	title = "nations_dismantled.8.n"
	desc = "nations_dismantled.8.t"
	picture = BURNING_CITY_eventPicture


	trigger = {
		tag = BUL
		has_country_flag = bulgarian_dynastic_struggle
		NOT = { months_of_ruling = 12 }
	}

	mean_time_to_happen = { months = 1 }

	immediate = { 
		clr_country_flag = bulgarian_dynastic_struggle
		if = {
			limit = { VID = { is_subject_of = ROOT } }
			free_vassal = VID
			}
		if = {
			limit = { 
				NOT = { exists = VID } 
				any_owned_province = {
					OR = {
						province_id = 2382
						culture = serbian
						}
					}
				}
			every_owned_province = {
				limit = {
					OR = {
						province_id = 2382 #Vidin
						culture = serbian
						}
					}
				cede_province = VID
				add_core = VID
				}
			}
		if = {
			limit = { WAL = { is_subject_of = ROOT } }
			free_vassal = WAL
			}
		if = {
			limit = { 
				NOT = { exists = WAL } 
				any_owned_province = { culture = vlach NOT = { has_port = yes } }
				}
			every_owned_province = {
				limit = { 
					culture = vlach
					NOT = { has_port = yes } 
					}
				cede_province = WAL
				add_core = WAL
				}
			}
		if = {
			limit = { DOB = { is_subject_of = ROOT } }
			free_vassal = DOB
			}
		if = {
			limit = { 
				NOT = { exists = DOB } 
				any_owned_province = {
					culture = vlach
					has_port = yes
					}
				}
			every_owned_province = {
				limit = {
					has_port = yes
					OR = { 
						culture = vlach
						culture = bulgarian
						}
					}
				cede_province = DOB
				add_core = DOB
				}
			}
		if = {
			limit = { EPI = { is_subject_of = ROOT } }
			free_vassal = EPI
			}
		if = {
			limit = { 
				NOT = { exists = EPI } 
				any_owned_province = {
					culture = greek
					}
				}
			every_owned_province = {
				limit = {
					culture = greek
					}
				cede_province = EPI
				add_core = EPI
				}
			}
		release_vassal = random
		change_tag = TAR
		if = {
			limit = { NOT = { total_development = 25 } }
			set_government_rank = 1
			}
		if = {
			limit = { 
				total_development = 25
				NOT = { total_development = 50 } 
				government_rank = 2 #Can't go up a rank in this way, only down
				}
			set_government_rank = 2
			}
		if = {
			limit = { 
				total_development = 50
				NOT = { total_development = 100 } 
				government_rank = 3
				}
			set_government_rank = 3
			}
		if = {
			limit = { 
				total_development = 100
				NOT = { total_development = 200 } 
				government_rank = 4
				}
			set_government_rank = 4
			}
		if = {
			limit = { 
				total_development = 200
				NOT = { total_development = 400 } 
				government_rank = 5
				}
			set_government_rank = 5
			}
		if = {
			limit = { 
				total_development = 400
				government_rank = 6
				}
			set_government_rank = 6
			}
		}
	
	option = {
		name = "nations_dismantled.8.a" #Fight for the throne
		ai_chance = { factor = 70 }
		subtract_stability_1 = yes 
		add_casus_belli = { target = VID type = cb_restore_personal_union months = 60 }
		declare_war_with_cb = { who = VID casus_belli = cb_restore_personal_union }
		VID = { 
			hidden_effect = {
				if = {
					limit = { ROOT = { num_of_cities = 4 } }
					infantry = capital
					cavalry = capital
					add_treasury = 25
					}
				if = {
					limit = { ROOT = { num_of_cities = 8 } }
					infantry = capital
					cavalry = capital
					add_treasury = 25
					}
				if = {
					limit = { ROOT = { num_of_cities = 12 } }
					infantry = capital
					cavalry = capital
					add_treasury = 25
					}
				if = {
					limit = { ROOT = { num_of_cities = 16 } }
					infantry = capital
					cavalry = capital
					add_treasury = 25
					}
				if = {
					limit = { ROOT = { num_of_cities = 20 } }
					infantry = capital
					cavalry = capital
					add_treasury = 25
					}
				}
			}
		every_province = {
			limit = {
				owned_by = TAR
				has_owner_culture = no
				NOT = { is_core = owner }
				}
			add_nationalism = 5
			add_unrest = 5
			}
		every_province = {
			limit = { 
				owned_by = TAR
				area = vidin_area
				}
			change_controller = VID
			}
		}
	option = {
		name = "nations_dismantled.8.b" #Divide up the empire
		ai_chance = { factor = 30 }
		add_prestige = -50
		every_province = {
			limit = { 
				owned_by = TAR
				area = vidin_area
				}
			cede_province = VID
			}
		}
}

country_event = {

id = nations_dismantled.9
title = nations_dismantled.9.t
desc = nations_dismantled.9.d
picture = BURNING_CITY_eventPicture

trigger = {
	OR = {
		tag = VID
		tag = BUL
		}
	VID = { has_ruler = "Ivan Stratzimir" }
	BUL = { has_ruler = "Ivan Alexander" }
	ai = no
	NOT = { has_country_flag = bulgarian_dynastic_struggles_explained }
	}

mean_time_to_happen = { months = 1 }

immediate = { set_country_flag = bulgarian_dynastic_struggles_explained }	

option = {
	name = nations_dismantled.9.a
	}

}

country_event = {

id = nations_dismantled.10
title = nations_dismantled.10.t
desc = nations_dismantled.10.d
picture = DEATH_OF_HEIR_eventPicture

	trigger = {
		OR = {
			tag = VID
			tag = BUL
		}
		BUL = { has_country_flag = bulgarian_dynastic_struggle }
		OR = {
			AND = {
				tag = VID
				NOT = { has_ruler = "Ivan Stratzimir" }
				}
			AND = {
				tag = BUL
				has_ruler = "Ivan Alexander"
				NOT = { has_heir = yes }
			}
		}
	}

	mean_time_to_happen = { months = 1 }

	immediate = { BUL = { clr_country_flag = bulgarian_dynastic_struggle } }
		
	option = {
		name = nations_dismantled.10.a
		if = {
			limit = { tag = VID exists = BUL }
			BUL = { country_event = { id = nations_dismantled.11 days = 0 } }
		}
		if = {
			limit = { tag = BUL exists = VID }
			VID = { country_event = { id = nations_dismantled.11 days = 0 } }
		}
	}
}

country_event = {

	id = nations_dismantled.11
	title = nations_dismantled.11.t
	desc = nations_dismantled.10.d
	picture = DEATH_OF_HEIR_eventPicture

	is_triggered_only = yes

	option = {
		name = nations_dismantled.11.a
		if = {
			limit = { tag = VID }
			#create_union = BUL
		}
		if = {
			limit = { tag = BUL }
			#create_union = VID
		}
	}
}
