213 = "Barshelonah"
214 = "Saraqustah"
215 = "Balad al-Walid"
216 = "Salamanqah"
217 = "Madschrit"
218 = "Torgiela"
219 = "al-Manschara"
220 = "Balansiyya"
221 = "Mursiya"
222 = "Al Mariyya"
223 = "Gharnata"
224 = "Walbah"
225 = "Qurtubah"
226 = "Malaqa"
227 = "Dschayyan"
228 = "Al-Gharb"
229 = "Santarin"
230 = "al-Isbunah"
231 = "Qulumriyyah"
232 = "Burtuqal"
325 = "Antalya"
329 = "Pamphili"
330 = "Trabzun"
1402 = "Kustantiniyyah"
2310 = "Djesirat Kadis"
2311 = "Isbiliya"
2312 = "Tulaytula"
2371 = "Cartadjinna"
2448 = "Batalyaus"
