name = "Fourth Ottoman-Venetian War"
war_goal = {
	type = take_core
	casus_belli = cb_core
	province = 138
}

1537.5.17 = {
	add_attacker = TUR
	add_defender = VEN
}

# The Holy League
1538.2.8 = {
	add_defender = SPA
	add_defender = GEN
	add_defender = PAP
	add_defender = KNI
}

# Battle of Preveza
1538.9.28 = { 
	battle = { 
		name = "Preveza" 
		location = 1312
		attacker = { 
			commander = "Barbarossa Hayreddin Pasha"			# Barbarossa Hayreddin Pasha
			galley = 122
			losses = 0			# percent 
			country = TUR
		} 
		defender = { 
			commander = "Andrea Doria"		# Andrea Doria
			galley = 302
			losses = 49			# percent 
			country = GEN
		} 
		result = yes
	} 
} 

# Peace
1540.10.2 = {
	rem_attacker = TUR
	rem_defender = KNI
	rem_defender = PAP
	rem_defender = GEN
	rem_defender = SPA
	rem_defender = VEN
}
