# 2080 - Paumari

culture = jivaro
religion = pantheism
capital = "Paumari"
trade_goods = unknown
hre = no
native_size = 10
native_ferocity = 1
native_hostileness = 3

1700.1.1   = {
	discovered_by = SPA
	owner = SPA
	controller = SPA
	add_core = SPA
	citysize = 10
	trade_goods = cacao
	set_province_flag = trade_good_set
}
1750.1.1   = {
	discovered_by = POR
	owner = POR
	controller = POR
	add_core = POR
	add_core = BRZ
	remove_core = SPA
}
1822.9.7   = {
	owner = BRZ
	controller = BRZ
}
1825.1.1   = {
	remove_core = POR
}
