#2317 - Kautara

owner = CHA
controller = CHA
add_core = CHA
culture = cham
religion = hinduism
capital = "Kautara"
base_tax = 7
base_production = 7
base_manpower = 4
is_city = yes
trade_goods = opium
discovered_by = chinese
discovered_by = indian
discovered_by = muslim
hre = no

1356.1.1 = {
	fort_14th = yes
}
1535.1.1 = { discovered_by = POR }
1693.1.1 = {
	owner = ANN
	controller = ANN
	add_core = ANN
} # Vietnamese control
1769.1.1 = { unrest = 6 } # Tay Son Rebellion
1776.1.1 = {
	unrest = 0
	owner = DAI
	controller = DAI
	add_core = DAI
} # Tay Son Dynasty conquered the Nguyen Lords
1786.1.1 = { unrest = 5 } # Unsuccessful revolt
1787.1.1 = { unrest = 0 }
1802.7.22 = {
	owner = ANN
	controller = ANN
	remove_core = DAI
} # Nguyen Phuc Anh conquered the Tay Son Dynasty
1883.8.25 = { 
	owner = FRA
	controller = FRA
}
