# No previous file for Shumen

owner = BUL
controller = BUL
culture = bulgarian
religion = orthodox
capital = "Shumen"
trade_goods = wheat
hre = no
base_tax = 10
base_production = 10
base_manpower = 4
is_city = yes
discovered_by = CIR
discovered_by = western
discovered_by = eastern
discovered_by = muslim
discovered_by = turkishtech
discovered_by = steppestech

#1133.1.1 = { mill = yes }
1356.1.1  = {
	add_core = BUL
}
1371.2.17 = {
	owner = TAR
	controller = TAR
	add_core = TAR
	remove_core = BUL
}
1375.1.1  = {
	owner = OTT
	controller = OTT
	add_core = OTT
	capital = "Eski Zagra"
	change_province_name = "Zagra"
}
1390.1.1  = {
	owner = TUR
	controller = TUR
	add_core = TUR
	remove_core = OTT
}
1393.7.17 = {
	add_core = BUL
	remove_core = TAR
}
#1453.5.29 = {
#	remove_core = BYZ
#}
1519.1.1 = { bailiff = yes }
1523.8.16 = { mill = yes }
1530.1.3 = {
	road_network = no paved_road_network = yes 
}
1598.1.1  = {
	controller = REB
} # First Tarnovo Uprising
1600.1.1  = {
	controller = TUR
}
1686.1.1  = {
	revolt = { type = nationalist_rebels size = 1 }
	controller = REB
} # Second Tarnovo Uprising
1690.1.1  = {
	revolt = { }
	controller = TUR
}
