issue_letters_of_marque = {

	category = 2
	
	allow = {
		num_of_ports = 2
		has_idea_group = naval_ideas
	}
	
	effect = {
	}
	
	modifier = {
		privateer_efficiency = 0.20
		embargo_efficiency = 0.15
		light_ship_cost = -0.1
	}

	ai_will_do = {
		factor = 1
		modifier = {
			factor = 2
			navy_size_percentage = 0.7
		}
		modifier = {
			factor = 0
			NOT = { num_of_ports = 5 }
		}
	}	
}