# Diplomatic Missions

get_an_alliance_mission = {

	type = neighbor_countries

	category = DIP

	allow = {
		FROM = {
			NOT = { num_of_allies = 2 }
			NOT = { has_country_flag = got_an_alliance_mission }
			NOT = { has_country_modifier = foreign_contacts }
		}
		NOT = { government = amalgamation_government }
		NOT = { num_of_allies = 2 }
		NOT = { is_enemy = FROM }
		NOT = { is_rival = FROM }
		is_at_war = no
		has_opinion = { who = FROM value = 50 }
		NOT = { alliance_with = FROM }
		NOT = { is_subject = yes }
		FROM = { NOT = { is_subject = yes } }
		NOT = {
			any_owned_province = {
				is_core = FROM
			}
		}
	}
	abort = {
		OR = {
			war_with = FROM
			FROM = { num_of_allies = 3 }
			NOT = { num_of_cities = 1 }
		}
	}
	success = {
		OR = {
			alliance_with = FROM
			# in case the country is vassalized by event ...
			overlord = {
				tag = FROM
			}
		}
	}
	chance = {
		factor = 1000
		modifier = {
			factor = 1.10
			primary_culture = FROM
		}
		modifier = {
			factor = 1.5
			religion = FROM
		}
		modifier = {
			factor = 1.15
			FROM = { dip = 3 }
		}
		modifier = {
			factor = 0.85
			FROM = { NOT = { dip = 2 } }
		}
		modifier = {
			factor = 1.1
			num_of_cities = 10
		}		
	}
	effect = {
		FROM = {
			add_country_modifier = {
				name = "foreign_contacts"
				duration = 3650
			}
			set_country_flag = got_an_alliance_mission
			add_dip_power = 15
		}
	}
}


improve_relations_mission = {

	type = neighbor_countries

	category = DIP

	allow = {
	FROM = {
			OR = { 
				NOT = { has_country_flag = improved_relations_mission }
				had_country_flag = { flag = improved_relations_mission days = 7300 }
			}
			NOT = { has_country_modifier = foreign_contacts }
		}
		NOT = { government = amalgamation_government }
		is_at_war = no
		religion_group = FROM
		NOT = { has_opinion = { who = FROM value = 50 } }
		has_opinion = { who = FROM value = 0 }
		NOT = {
			any_owned_province = {
				is_core = FROM
			}
		}
		OR = {
			government_rank = 6
			AND = {
				NOT = { government = early_medieval_japanese_gov }
				NOT = { government = late_medieval_japanese_gov }
				NOT = { government = early_modern_japanese_gov }
			}
		}
		OR = {
			is_subject = no
			overlord = {
				tag = FROM
			}
		}
		NOT = { FROM = { is_rival = ROOT } }
		NOT = { ROOT = { is_rival = FROM } }
		
	}
	immediate = {
		FROM = {
			add_country_modifier = {
				name = "improved_relation_mission_bonus"
				duration = -1
			}
		}
	}
	abort = {
		OR = {
			war_with = FROM
			exists = no
		}
	}
	abort_effect = {
		FROM = { 
			remove_country_modifier = improved_relation_mission_bonus
			add_country_modifier = {
				name = "improved_relation_mission_bonus_malus"
				duration = 1825
			}
		}
	}
	success = {
		has_opinion = { who = FROM value = 100 }
	}
	
	chance = {
		factor = 1000
		modifier = {
			factor = 1.25
			primary_culture = FROM
		}
		modifier = {
			factor = 1.1
			religion = FROM
		}
		modifier = {
			factor = 1.1
			FROM = { dip = 3 }
		}
		modifier = {
			factor = 0.8
			FROM = { NOT = { dip = 2 } }
		}
	}
	effect = {
		FROM = {
			set_country_flag = improved_relations_mission
			remove_country_modifier = improved_relation_mission_bonus
			add_country_modifier = {
				name = "foreign_contacts"
				duration = 3650
			}
		}
	}	
}


generic_annex_vassal_mission = {
	
	type = neighbor_countries

	category = DIP

	target_provinces = {
		owned_by = ROOT
	}
	allow = {
		FROM = {
			is_at_war = no
			NOT = { has_country_flag = generic_annex_mission_had }
			NOT = { has_country_modifier = foreign_contacts }
		}
		vassal_of = FROM
		NOT = { num_of_cities = FROM }
		religion_group = FROM
	}
	abort = {
		OR = {
			exists = no
			NOT = { vassal_of = FROM }
			NOT = { religion_group = FROM }
		}
	}
	success = {
		exists = no
		all_target_province = {
			owned_by = FROM
		}
	}
	chance = {
		factor = 1000
		modifier = {
			factor = 1.1
			FROM = { dip = 3 }
		}
		modifier = {
			factor = 1.1
			FROM = { dip = 5 }
		}
	}
	effect = {
		FROM = {
			set_country_flag = generic_annex_mission_had
			add_country_modifier = {
				name = "foreign_contacts"
				duration = 3650
			}
			add_prestige = 5
			add_adm_power = 20
		}
	}
}


improve_reputation_mission = {

	type = country
	
	category = DIP
	
	allow = {
		overextension_percentage = 0.50
		NOT = { has_country_modifier = foreign_contacts }
	}
	abort = {
	}
	success = {
		NOT = { overextension_percentage = 0.01 }
	}
	chance = {
		factor = 1000
		modifier = {
			factor = 1.05
			dip = 3
		}
		modifier = {
			factor = 1.10
			dip = 5
		}
		modifier = {
			factor = 1.10
			overextension_percentage = 0.75
		}
	}
	effect = {
		define_advisor = { type = diplomat skill = 3 discount = yes }
		add_prestige = 5
		add_country_modifier = {
			name = "foreign_contacts"
			duration = 3650
		}
	}
}


vassalize_mission = {

	type = neighbor_countries
	
	category = DIP

	allow = {
		NOT = { government = steppe_horde }
		OR = {
			government_rank = 6
			AND = {
				NOT = { government = early_medieval_japanese_gov }
				NOT = { government = late_medieval_japanese_gov }
				NOT = { government = early_modern_japanese_gov }
			}
		}
		is_subject = no
		has_regency = no
		FROM = { 
			is_subject = no 
			NOT = { government = steppe_horde }
			OR = {
				government_rank = 5
				AND = {
					NOT = { government = early_medieval_japanese_gov }
					NOT = { government = late_medieval_japanese_gov }
					NOT = { government = early_modern_japanese_gov }
				}
			}
			num_of_cities = 5
			}
		NOT = { government = amalgamation_government }
		NOT = { num_of_cities = 4 }
		NOT = { total_development = 75 }
		religion_group = FROM
		NOT = { war_with = FROM }
		NOT = { alliance_with = FROM }
		has_opinion = { who = FROM value = 50 }
	}
	abort = {
		OR = {
			NOT = { num_of_cities = 1 }	#exists wont work, as we dont know the tag.
			government = imperial_city
			AND = {
				is_subject = yes
				NOT = { vassal_of = FROM }
			}
			NOT = {
				FROM = {
					has_casus_belli = {
						type = cb_vassalize_mission
						target = ROOT
					}
				}
			}
		}
	}
	success = {
		vassal_of = FROM
	}
	chance = {
		factor = 1000
		modifier = {
			factor = 1.15
			primary_culture = FROM
		}
		modifier = {
			factor = 1.1
			religion = FROM
		}
		modifier = {
			factor = 1.1
			capital_scope = {
				development = 5
			}
		}		
		modifier = {
			factor = 1.1
			NOT = { num_of_cities = 2 }
		}
	}
	immediate = {
		FROM = {
			add_casus_belli = {
				type = cb_vassalize_mission
				months = 300
				target = ROOT
			}
		}
	}
	abort_effect = {
		FROM = {
			remove_casus_belli = {
				type = cb_vassalize_mission
				target = ROOT
			}
		}
	}
	effect = {
		FROM = {
			add_country_modifier = {
				name = "foreign_contacts"
				duration = 3650
			}
		}
		hidden_effect = {
			remove_casus_belli = {
				type = cb_vassalize_mission
				target = ROOT
			}
		}
	}	
}


royal_marriage_mission = {

	type = neighbor_countries
	
	category = DIP

	allow = {
		is_at_war = no	
		FROM = { 
			government = monarchy
			is_subject = no 
			num_of_free_diplomatic_relations = 1
			NOT = { has_country_flag = had_royal_marriage_mission }
			NOT = { has_country_modifier = foreign_contacts }
		}
		government = monarchy
		religion_group = FROM
		is_subject = no 
		NOT = {  
			marriage_with = FROM 
			war_with = FROM
			is_rival = FROM
		}
		NOT = { government = amalgamation_government }
		has_opinion = { who = FROM value = 10 }
		NOT = {
			any_owned_province = {
				is_core = FROM
			}
		}
		OR = {
			government_rank = 6
			AND = {
				NOT = { government = early_medieval_japanese_gov }
				NOT = { government = late_medieval_japanese_gov }
				NOT = { government = early_modern_japanese_gov }
			}
		}
	}
	abort = {
		OR = {
			NOT = { num_of_cities = 1 }	#exists won't work, as we don't know the tag.
			war_with =  FROM
			FROM = {
				OR = {
					NOT = { government = monarchy }
					is_subject = yes
				}
			}
			NOT = { government = monarchy }
			is_subject = yes
		}
	}
	success = {
		marriage_with = FROM
	}
	chance = {
		factor = 1000
		modifier = {
			factor = 1.12
			primary_culture = FROM
		}
		modifier = {
			factor = 1.03
			religion = FROM
		}
		modifier = {
			factor = 1.1
			has_opinion = { who = FROM value = 50 }
		}
		modifier = {
			factor = 1.1
			FROM = { dip = 3 }
		}
		modifier = {
			factor = 1.04
			prestige = FROM
		}
		modifier = {
			factor = 1.08
			NOT = { legitimacy = FROM }
		}
	}
	effect = {
		FROM = {
			add_country_modifier = {
				name = "foreign_contacts"
				duration = 3650
			}
			set_country_flag = had_royal_marriage_mission
			add_prestige = 5
			add_dip_power = 25
		}
	}	
}


improve_relations_with_rival = {

	type = neighbor_countries 
	
	category = DIP

	allow = {
		always = no # missions removed
		is_at_war = no
		is_rival = FROM
		NOT = {  has_opinion = { who = FROM value = 0 }  }
		has_opinion = { who = FROM value = -75 }
		NOT = { army_size = FROM }
	}
	abort = {
		OR = {
			war_with = FROM
			exists = no
		}
	}
	success = {
		has_opinion = { who = FROM value = 50 }
	}
	chance = {
		factor = 1000
		modifier = {
			factor = 1.05
			primary_culture = FROM
		}
		modifier = {
			factor = 1.05
			NOT = { religion = FROM }
		}
		modifier = {
			factor = 1.05
			NOT = { religion_group = FROM }
		}
		modifier = {
			factor = 1.1
			FROM = { dip = 3 }
		}
		modifier = {
			factor = 0.9
			FROM = { NOT = { dip = 2 } }
		}
		modifier = {
			factor = 1.05
			manpower = FROM
		}		
	}
	effect = {
		FROM = { add_dip_power = 25 }
	}	
}
