country_decisions = {

	ramazanid_beylik = {
		potential = {
			tag = MAM
			religion_group = muslim
			government = monarchy
			NOT = { exists = RAM }
			NOT = { has_country_flag = ramazanid_beylik_indp }
			OR = {
				owns = 1755
				owns = 327
			}	
		}
		allow = {
			is_at_war = no
			owns = 1755
			owns = 327
		}
		effect = {
			set_country_flag = ramazanid_beylik_indp
			add_prestige = 5
			every_owned_province = {
				limit = {
					OR = {
						province_id = 1755
						province_id = 327
					}
				}
				add_core = RAM
				remove_core = ROOT
				remove_claim = ROOT
			}
			release = RAM
			create_alliance = RAM
			RAM = {
				change_religion = sunni
				add_accepted_culture = cilician
				define_ruler = {
					name = "Ramazan Beg"
					dynasty = "Ramazanoglu"
					DIP = 2
					ADM = 3
					MIL = 5
				}
				set_government_rank = 1
				add_manpower = 10
				capital_scope = {
					build_to_forcelimit = {
						infantry = 0.8
						cavalry = 0.2
					}
				}
			}
		}
		ai_will_do = {
			factor = 100
		}
	}
}