# BAZ - Bayern-Straubing (1353-1426)
# also counts of Hainaut Holland and Zeeland (+ Friesland?) 1354-1417.5.31
# 2009-dec-31 - FB - HT3 changes

government = feudal_monarchy government_rank = 3
mercantilism = 0.0
technology_group = western
primary_culture = bavarian
religion = catholic
capital = 64

1000.1.1 = {
	set_variable = { which = "centralization_decentralization" value = 4 }
}

#1354.1.1 Lower Bavaria divided into Bayern-Straubing and Bayern-Landshut
#Wilhelm unites Hainaut-Holland in a PU with Bayern-Straubing
1354.1.1 = {
	monarch = {
		name = "Wilhelm I"
		dynasty = "von Wittelsbach"
		ADM = 3
		DIP = 2
		MIL = 2
    	}
	set_country_flag = wittelsbach_succession
}

1389.1.1 = {
	monarch = {
		name = "Albrecht I"
		dynasty = "von Wittelsbach"
		ADM = 5
		DIP = 4
		MIL = 2
	}
}
1404.12.13 = {
	monarch = {
		name = "Wilhelm II"
		dynasty = "von Wittelsbach"
		ADM = 2
		DIP = 2
		MIL = 3
    	}
}

1417.5.31  = {
	monarch = {
		name = "Johann III"
		dynasty = "von Wittelsbach"
		ADM = 5
		DIP = 4
		MIL = 4
	}
}
#1426-1429 interregnum
#1429 reunited with Bavaria-Munich
#(for game purposes reunited 1426.1.1)
#1426.1.1 end of PU with Hainaut-Holland
