# FLO - Kingdom of Greater Fulo

government = tribal_monarchy government_rank = 3
mercantilism = 0.0
primary_culture = fulani
religion = west_african_pagan_reformed
technology_group = sub_saharan
capital = 1114 # Cayor

1000.1.1  = {
	add_country_modifier = {
		name = "concubinage"
		duration = -1
	}
	set_variable = { which = "centralization_decentralization" value = 3 }
}

#Denyanke Kings
1490.1.1 = {
	monarch = {
		name = "Koli Tengella"
		dynasty = "Denianke"
		dip = 2
		adm = 1
		mil = 5
	}
}

1512.1.1 = {
	monarch = {
		name = "Koli Tengella II"
		dynasty = "Denianke"
		dip = 3
		adm = 3
		mil = 3
	}
}

1532.1.1 = {
	monarch = {
		name = "Laba Tengella"
		dynasty = "Denianke"
		dip = 2
		adm = 1
		mil = 2
	}
}

1539.1.1 = {
	monarch = {
		name = "Gelaajo Bambi"
		dynasty = "Denianke"
		dip = 2
		adm = 1
		mil = 2
	}
}

1563.1.1 = {
	monarch = {
		name = "Gelaajo Tabara"
		dynasty = "Denianke"
		dip = 2
		adm = 1
		mil = 2
	}
}

1576.1.1 = {
	monarch = {
		name = "Gelaajo Gaisiri"
		dynasty = "Denianke"
		dip = 2
		adm = 1
		mil = 2
	}
}

1580.1.1 = {
	monarch = {
		name = "Yero Jam Koli"
		dynasty = "Denianke"
		dip = 2
		adm = 1
		mil = 2
	}
}

1586.1.1 = {
	monarch = {
		name = "Njai Garm"
		dynasty = "Denianke"
		dip = 2
		adm = 1
		mil = 2
	}
}

1586.4.1 = {
	monarch = {
		name = "Jaje Garm"
		dynasty = "Denianke"
		dip = 2
		adm = 1
		mil = 2
	}
}

1586.8.1 = {
	monarch = {
		name = "Jaje Ule"
		dynasty = "Denianke"
		dip = 2
		adm = 1
		mil = 2
	}
}


1609.1.1 = {
	monarch = {
		name = "Gata Kumba"
		dynasty = "Denianke"
		dip = 2
		adm = 1
		mil = 2
	}
}

1610.1.1 = {
	monarch = {
		name = "Samba Lamu"
		dynasty = "Denianke"
		dip = 2
		adm = 1
		mil = 2
	}
}

1640.1.1 = {
	monarch = {
		name = "Bokar Tabakali"
		dynasty = "Denianke"
		dip = 2
		adm = 1
		mil = 2
	}
}

1669.1.1 = {
	monarch = {
		name = "Sire Tabakali"
		dynasty = "Denianke"
		dip = 2
		adm = 1
		mil = 2
	}
}

1702.1.1 = {
	monarch = {
		name = "Samba Bohi"
		dynasty = "Denianke"
		dip = 2
		adm = 1
		mil = 2
	}
}

1707.1.1 = {
	monarch = {
		name = "Samba Dundu"
		dynasty = "Denianke"
		dip = 2
		adm = 1
		mil = 2
	}
}

1709.1.1 = {
	monarch = {
		name = "Bubakar Sire Samba Lamu"
		dynasty = "Denianke"
		dip = 2
		adm = 1
		mil = 2
	}
}

1710.1.1 = {
	monarch = {
		name = "Gelaajo Jeegi"
		dynasty = "Denianke"
		dip = 2
		adm = 1
		mil = 2
	}
}

1718.1.1 = {
	monarch = {
		name = "Bubakar Sire Samba Lamu"
		dynasty = "Denianke"
		dip = 2
		adm = 1
		mil = 2
	}
} #Same one

1721.1.1 = {
	monarch = {
		name = "Bubu Musa"
		dynasty = "Denianke"
		dip = 2
		adm = 1
		mil = 2
	}
}

1722.1.1 = {
	monarch = {
		name = "Bubakar Sire Samba Lamu"
		dynasty = "Denianke"
		dip = 2
		adm = 1
		mil = 2
	}
} #yet again

1723.1.1 = {
	monarch = {
		name = "Bubu Musa"
		dynasty = "Denianke"
		dip = 2
		adm = 1
		mil = 2
	}
} #Now they're playing throne ping-pong

1724.1.1 = {
	monarch = {
		name = "Samba Sire Samba Lamu"
		dynasty = "Denianke"
		dip = 2
		adm = 1
		mil = 2
	}
}

1724.6.1 = {
	monarch = {
		name = "Bubu Musa"
		dynasty = "Denianke"
		dip = 2
		adm = 1
		mil = 2
	}
} #Still the same.

1725.1.1 = {
	monarch = {
		name = "Samba Gelaajo Jeegi"
		dynasty = "Denianke"
		dip = 2
		adm = 1
		mil = 2
	}
}

1726.1.1 = {
	monarch = {
		name = "Konko Bubu Musa"
		dynasty = "Denianke"
		dip = 2
		adm = 1
		mil = 2
	}
}

1739.1.1 = {
	monarch = {
		name = "Samba Gelaajo Jeegi"
		dynasty = "Denianke"
		dip = 2
		adm = 1
		mil = 2
	}
} #Repeat performance

1741.1.1 = {
	monarch = {
		name = "Konko Bubu Musa"
		dynasty = "Denianke"
		dip = 2
		adm = 1
		mil = 2
	}
} #Also repeat performance

1743.1.1 = {
	monarch = {
		name = "Sule Njai"
		dynasty = "Denianke"
		dip = 2
		adm = 1
		mil = 2
	}
}

1747.1.1 = {
	monarch = {
		name = "Bubu Gaisiri"
		dynasty = "Denianke"
		dip = 2
		adm = 1
		mil = 2
	}
}

1749.1.1 = {
	monarch = {
		name = "Sule Njai"
		dynasty = "Denianke"
		dip = 2
		adm = 1
		mil = 2
	}
} #Once more unto the breach...

1750.1.1 = {
	monarch = {
		name = "Jaje Ule"
		dynasty = "Denianke"
		dip = 2
		adm = 1
		mil = 2
	}
}

1752.1.1 = {
	monarch = {
		name = "Sule Njai"
		dynasty = "Denianke"
		dip = 2
		adm = 1
		mil = 2
	}
} #Yet again

1765.1.1 = {
	monarch = {
		name = "Samba Bohi Konko"
		dynasty = "Denianke"
		dip = 2
		adm = 1
		mil = 2
	}
}

1772.1.1 = {
	monarch = {
		name = "Bakari Sule"
		dynasty = "Denianke"
		dip = 0
		adm = 0
		mil = 0
	}
}

1772.5.1 = {
	monarch = {
		name = "Makhan Uru"
		dynasty = "Denianke"
		dip = 0
		adm = 0
		mil = 0
	}
}

1772.9.1 = {
	monarch = {
		name = "Sule Bubu"
		dynasty = "Denianke"
		dip = 0
		adm = 0
		mil = 0
	}
}

#Almami of Futa Toro

1776.1.1 = {
	religion = sunni
	monarch = {
		name = "Abdul Kader Kan"
		dynasty = "Torodbe"
		dip = 2
		adm = 3
		mil = 3
	}
}

1806.1.1 = {
	monarch = {
		name = "Moktar Kudeji Talla"
		dynasty = "Torodbe"
		dip = 2
		adm = 2
		mil = 3
	}
}

1807.1.1 = {
	monarch = {
		name = "Hamat Lamin Bal"
		dynasty = "Torodbe"
		dip = 2
		adm = 2
		mil = 2
	}
}

1808.1.1 = {
	monarch = {
		name = "Yusuf Ly"
		dynasty = "Torodbe"
		dip = 2
		adm = 2
		mil = 2
	}
}

1810.1.1 = {
	monarch = {
		name = "Bokar Lamin Bal"
		dynasty = "Torodbe"
		dip = 2
		adm = 1
		mil = 2
	}
}

1813.1.1 = {
	monarch = {
		name = "Yusuf"
		dynasty = "Torodbe"
		dip = 2
		adm = 1
		mil = 2
	}
}

1815.1.1 = {
	monarch = {
		name = "Ali Ibra Wan"
		dynasty = "Torodbe"
		dip = 2
		adm = 1
		mil = 2
	}
}

1816.1.1 = {
	monarch = {
		name = "Sire Amadu Ly"
		dynasty = "Torodbe"
		dip = 2
		adm = 1
		mil = 2
	}
}

1817.1.1 = {
	monarch = {
		name = "Yusuf"
		dynasty = "Torodbe"
		dip = 2
		adm = 1
		mil = 2
	}
} #Again

1817.8.1 = {
	monarch = {
		name = "Biran Ibra Wan"
		dynasty = "Torodbe"
		dip = 2
		adm = 1
		mil = 2
	}
}

1818.1.1 = {
	monarch = {
		name = "Mamadu Mamudu An"
		dynasty = "Torodbe"
		dip = 2
		adm = 1
		mil = 2
	}
}

1818.8.1 = {
	monarch = {
		name = "Yusuf"
		dynasty = "Torodbe"
		dip = 2
		adm = 1
		mil = 2
	}
} #Also again

1819.1.1 = {
	monarch = {
		name = "Biran"
		dynasty = "Torodbe"
		dip = 2
		adm = 1
		mil = 2
	}
}
